{
    "placed": [],
    "fixed": [
        {
            "height": 128,
            "type": "exit",
            "rotation": -45,
            "y": 52,
            "width": 32,
            "x": 59
        },
        {
            "height": 128,
            "type": "exit",
            "rotation": -135,
            "y": 56,
            "width": 32,
            "x": 1100
        },
        {
            "height": 128,
            "type": "exit",
            "rotation": -222.99998474121094,
            "y": 663,
            "width": 32,
            "x": 1092
        },
        {
            "height": 128,
            "type": "exit",
            "rotation": -313,
            "y": 662,
            "width": 32,
            "x": 57
        },
        {
            "height": 128,
            "type": "gravity_modifier",
            "rotation": 0,
            "y": 90,
            "width": 128,
            "x": 574
        },
        {
            "height": 128,
            "type": "gravity_modifier",
            "rotation": -90,
            "y": 366,
            "width": 128,
            "x": 838
        },
        {
            "height": 128,
            "type": "gravity_modifier",
            "rotation": -180,
            "y": 621,
            "width": 128,
            "x": 572
        },
        {
            "height": 128,
            "type": "gravity_modifier",
            "rotation": -270,
            "y": 375,
            "width": 128,
            "x": 315
        },
        {
            "height": 64,
            "type": "score_orb",
            "rotation": 0,
            "y": 566,
            "width": 64,
            "x": 348
        },
        {
            "height": 64,
            "type": "score_orb",
            "rotation": 0,
            "y": 163,
            "width": 64,
            "x": 348
        },
        {
            "height": 64,
            "type": "score_orb",
            "rotation": 0,
            "y": 161,
            "width": 64,
            "x": 799
        },
        {
            "height": 64,
            "type": "score_orb",
            "rotation": 0,
            "y": 568,
            "width": 64,
            "x": 801
        }
    ],
    "inventory": [
        {
            "height": 128,
            "type": "gravity_modifier",
            "rotation": 0,
            "y": 64,
            "width": 128,
            "x": 1224
        },
        {
            "height": 128,
            "type": "gravity_modifier",
            "rotation": -90,
            "y": 192,
            "width": 128,
            "x": 1224
        },
        {
            "height": 128,
            "type": "gravity_modifier",
            "rotation": -180,
            "y": 320,
            "width": 128,
            "x": 1224
        },
        {
            "height": 128,
            "type": "gravity_modifier",
            "rotation": -270,
            "y": 448,
            "width": 128,
            "x": 1224
        }
    ],
    "name": "Level 4"
}